%YAML 1.1
%TAG !u! tag:unity3d.com,2011:
--- !u!1001 &100100000
Prefab:
  m_ObjectHideFlags: 1
  serializedVersion: 2
  m_Modification:
    m_TransformParent: {fileID: 0}
    m_Modifications: []
    m_RemovedComponents: []
  m_ParentPrefab: {fileID: 0}
  m_RootGameObject: {fileID: 1551459581042886}
  m_IsPrefabParent: 1
--- !u!1 &1551459581042886
GameObject:
  m_ObjectHideFlags: 0
  m_PrefabParentObject: {fileID: 0}
  m_PrefabInternal: {fileID: 100100000}
  serializedVersion: 5
  m_Component:
  - component: {fileID: 4733736092224800}
  - component: {fileID: 114473798780214118}
  m_Layer: 0
  m_Name: FontController
  m_TagString: Untagged
  m_Icon: {fileID: 0}
  m_NavMeshLayer: 0
  m_StaticEditorFlags: 0
  m_IsActive: 1
--- !u!4 &4733736092224800
Transform:
  m_ObjectHideFlags: 1
  m_PrefabParentObject: {fileID: 0}
  m_PrefabInternal: {fileID: 100100000}
  m_GameObject: {fileID: 1551459581042886}
  m_LocalRotation: {x: 0, y: 0, z: 0, w: 1}
  m_LocalPosition: {x: 0, y: 0, z: 0}
  m_LocalScale: {x: 1, y: 1, z: 1}
  m_Children: []
  m_Father: {fileID: 0}
  m_RootOrder: 0
  m_LocalEulerAnglesHint: {x: 0, y: 0, z: 0}
--- !u!114 &114473798780214118
MonoBehaviour:
  m_ObjectHideFlags: 1
  m_PrefabParentObject: {fileID: 0}
  m_PrefabInternal: {fileID: 100100000}
  m_GameObject: {fileID: 1551459581042886}
  m_Enabled: 1
  m_EditorHideFlags: 0
  m_Script: {fileID: 11500000, guid: 2b8a63d2c31b6774986271ecfc008e5e, type: 3}
  m_Name: 
  m_EditorClassIdentifier: 
  _bangla_Font: {fileID: 12800000, guid: 41eaedb4a470d7d458bc2b1a7350a7ce, type: 3}
  _english_Font: {fileID: 12800000, guid: 964407c425d669b4782de676ff7546af, type: 3}
  _normalColor: {r: 0.11764705, g: 0.076983646, b: 0.076124564, a: 1}
  _activeColor: {r: 0.39705884, g: 0.36560825, b: 0.3649438, a: 1}
  _banglaButton: {fileID: 0}
  _englishButton: {fileID: 0}
