%YAML 1.1
%TAG !u! tag:unity3d.com,2011:
--- !u!1 &239709518243425376
GameObject:
  m_ObjectHideFlags: 0
  m_CorrespondingSourceObject: {fileID: 0}
  m_PrefabInstance: {fileID: 0}
  m_PrefabAsset: {fileID: 0}
  serializedVersion: 6
  m_Component:
  - component: {fileID: 239709518243425378}
  - component: {fileID: 239709518243425377}
  m_Layer: 0
  m_Name: WeaponsManager
  m_TagString: Untagged
  m_Icon: {fileID: 0}
  m_NavMeshLayer: 0
  m_StaticEditorFlags: 0
  m_IsActive: 1
--- !u!4 &239709518243425378
Transform:
  m_ObjectHideFlags: 0
  m_CorrespondingSourceObject: {fileID: 0}
  m_PrefabInstance: {fileID: 0}
  m_PrefabAsset: {fileID: 0}
  m_GameObject: {fileID: 239709518243425376}
  m_LocalRotation: {x: 0, y: 0, z: 0, w: 1}
  m_LocalPosition: {x: 0, y: 0, z: 0}
  m_LocalScale: {x: 1, y: 1, z: 1}
  m_Children: []
  m_Father: {fileID: 0}
  m_RootOrder: 0
  m_LocalEulerAnglesHint: {x: 0, y: 0, z: 0}
--- !u!114 &239709518243425377
MonoBehaviour:
  m_ObjectHideFlags: 0
  m_CorrespondingSourceObject: {fileID: 0}
  m_PrefabInstance: {fileID: 0}
  m_PrefabAsset: {fileID: 0}
  m_GameObject: {fileID: 239709518243425376}
  m_Enabled: 1
  m_EditorHideFlags: 0
  m_Script: {fileID: 11500000, guid: 971388c980dc1b74aa2fe6c3a60bcb96, type: 3}
  m_Name: 
  m_EditorClassIdentifier: 
  _OutPutWeaponsDetails:
  - _weaponsName: {fileID: 0}
    _firingRange_Slider: {fileID: 0}
    _firingRange_Text: {fileID: 0}
    _barralRange_Slider: {fileID: 0}
    _barralRange_Text: {fileID: 0}
    _origin_Text: {fileID: 0}
    _aboutText: {fileID: 0}
    _videoPlayer: {fileID: 0}
    _infoImage: {fileID: 0}
  _WeaponsDetailsScriptableObject:
  - {fileID: 11400000, guid: e93976ca43ad434499dcc303396e124b, type: 2}
  _weapons:
  - {fileID: 0}
