%YAML 1.1
%TAG !u! tag:unity3d.com,2011:
--- !u!114 &11400000
MonoBehaviour:
  m_ObjectHideFlags: 0
  m_CorrespondingSourceObject: {fileID: 0}
  m_PrefabInstance: {fileID: 0}
  m_PrefabAsset: {fileID: 0}
  m_GameObject: {fileID: 0}
  m_Enabled: 1
  m_EditorHideFlags: 0
  m_Script: {fileID: 11500000, guid: b278445c8acad5947ac775a08290edad, type: 3}
  m_Name: MM_LR
  m_EditorClassIdentifier: 
  _weaponsName: MM_LR
  _weaponsName_Bangla: GgwewU 2000
  _firingRange: 500 km
  _firingRange_bangla: 500 km
  _barralRange: 
  _barralRange_bangla: 
  _origin: CHINA
  _origin_bangla: Pxb
  _about_English: "Pakistan's development of the MBT-2000 Al Khalid began in 1988,
    and in January 1990 an agreement was reached with China to jointly design, develop
    and manufacture system. \r\nThe design is an upgrade from the original T902M and
    work had been going on at China's NORINCO for some years, with initial prototypes
    produced in China were fielded for trials in August 1991. \r\nPakistan's manufacturing
    plant at Taxila was completed in 1992. Since then development efforts have focused
    on improving the design for Pakistan's terrain and high temperatures. \r\nThe
    engine of the T90 2M is replaced by the Ukrainian 6TD 1200hp engine, and a newly
    developed thermal viewer system has been added to improve nocturnal fighting capability.
    \r\nHeavy Industries Taxila was expected to start production of Al-Khalid before
    the turn of this century. \r\nThe Chinese ground army has not made any purchase
    orders and will not use the same tank when it does decide to buy a next-generation
    armored vehicle.\r\n"
  _about_Bangla_Unicode: "GgwewU -200 Avj Lvwj\u2021`i cvwK\xAF\u2014v\u2021bi weKvk
    1988 mv\u2021j \xEFi\u201C nh\u2021\u09BCwQj Ges 1990 mv\u2021ji Rvbyh\u09BCvwi\u2021Z
    Px\u2021bi mv\u2021_ \u2021h\u0160_fv\u2021e wWRvBb, weKvk I DZ&cv`b e\xA8e\xAF\u2019v
    Kivi Rb\xA8 GKwU Pyw\xB3 nh\u2021\u09BCwQj|\r\nbKkvwU g~j wU 902 Gg \u2021_\u2021K
    Avc\u2021M\xABW Ges wKQy eQi a\u2021i Px\u2021bi bwib\u2021Kv\u2021Z KvR Pj\u2021Q,
    1991 mv\u2021ji AvM\u2021\xF7 Px\u2021b DZ&cvw`Z c\xABv_wgK \u2021c\xABv\u2021UvUvBc\xB8wj
    cix\xB6vi Rb\xA8 gv\u2021V bvgv\u2021bv nh\u2021\u09BCwQj|\r\nUvKwmjvh\u09BC cvwK\xAF\u2014v\u2021bi
    DZ&cv`b \u2021K\u203A`\xABwU 1992 mv\u2021j \u2021kl nh\u2021\u09BCwQj| Zvi ci
    \u2021_\u2021K Db\u0153h\u09BC\u2021bi c\xAB\u2021P\xF3v cvwK\xAF\u2014v\u2021bi
    f~L\xCA Ges D\u201DP Zvcgv\xCEvi bKkv Db\u0153Z Kivi w`\u2021K g\u2021bvwb\u2021ek
    K\u2021i\u2021Q|\r\nT90 2M Gi Bw\xC4bwU BD\u2021\xB5bxh\u09BC 6TD 1200hp Bw\xC4b
    \xD8viv c\xABwZ\xAF\u2019vwcZ Kiv nh\u2021\u09BC\u2021Q, Ges wbkvPi jW\u09BCvBh\u2021\u09BCi
    \xB6gZv Db\u0153Z Ki\u2021Z GKwU bZyb weKvwkZ Zvc c\xAB`k\xA9\u2021bi e\xA8e\xAF\u2019v
    hy\xB3 Kiv nh\u2021\u09BC\u2021Q|\r\nfvix B\xDBvw\xF7\xABR U\xA8vw\xB7jv GB kZv\xE3xi
    \xEFi\u201C nIh\u09BCvi Av\u2021M Avj-Lvwj\u2021`i DZ&cv`b \xEFi\u201C Ki\u2021e
    e\u2021j Avkv Kiv nh\u2021\u09BCwQj|\r\nPvBwbR M\xABvD\xDB Avwg\xA9 \u2021KvbI
    \xB5h\u2021\u09BCi Av\u2021`k \u2021`h\u09BCwb Ges hLb cieZ\xA9x c\xABR\u2021b\xA5i
    mvu\u2021Rvh\u09BCv hvb \u2021Kbvi wm\xD7v\u0161\u2014 \u2021b\u2021e ZLb GKB
    U\xA8v\xBC e\xA8envi Ki\u2021e bv|"
  _about_Page_Text_Height: 700
  _video_URL: https://www.youtube.com/watch?v=vBIot7qsxTk
  _infoSprite: {fileID: 21300000, guid: ca0ca2c77f011d942847c8c54bdb37d4, type: 3}
  _SliderImageSprites:
  - {fileID: 21300000, guid: 371b557800c7d44408d75d3032c6af07, type: 3}
  - {fileID: 21300000, guid: a28c268a2256e884f8ae39131c94a8f4, type: 3}
  - {fileID: 21300000, guid: 371b557800c7d44408d75d3032c6af07, type: 3}
  _firingRange_A: 500 km
  _firingRange_A_bangla: 500 km
  _barralRange_A: 
  _barralRange_A_bangla: 
  _origin_A: CHINA
  _origin_A_bangla: Pxb
  _firingRange_B: 500 km
  _firingRange_B_bangla: 500 km
  _barralRange_B: 
  _barralRange_B_bangla: 
  _origin_B: CHINA
  _origin_B_bangla: Pxb
